{"cities": {
    "item": [
      "Addis Ababa",
      "Gondar",
      "Mekele",
      "Adama",
      "Hawassa",
      "Bahir Dar",
      "Dire Dawa",
      "Dessie",
      "Jimma",
      "Jigjiga",
      "Shashemene",
      "Wolaita Sodo",
      "Bishoftu",
      "Arba Minch",
      "Hosaena",
      "Harar",
      "Dilla",
      "Nekemte",
      "Debre Berhan",
      "Debre Markos",
      "Assela",
      "Kombolcha",
      "Debre Tabor",
      "Adigrat",
      "Arsi Negele",
      "Woldia",
      "Sebeta",
      "Burayu",
      "Shire",
      "Ambo",
      "Gambella",
      "Aksum",
      "Mizan Teferi",
      "Bale Robe",
      "Butajira",
      "Ziway",
      "Areka",
      "Yirgalem",
      "Mojo",
      "Welkite",
      "Woliso",
      "Meki",
      "Gode",
      "Kobo",
      "Alaba Kolito",
      "Negele Borena",
      "Alamata",
      "Adwa",
      "Asebe Teferi",
      "Teppi",
      "Assosa",
      "Durame",
      "Metema",
      "Hagere Mariam",
      "Goba",
      "Boditi",
      "Dolo",
      "Wukro",
      "Hadero",
      "Gimbi",
      "Azezo",
      "Haromaya",
      "Wondo Genet",
      "Sawla",
      "Aleta Wendo",
      "Metu",
      "Dembi Dolo",
      "Bure",
      "Finote Selam",
      "Moyale",
      "Fiche",
      "Bonga",
      "Jinka",
      "Agaro",
      "Mota",
      "Gelemso",
      "Degehabur",
      "Chuko",
      "Nejo",
      "Kebri Dahar",
      "Sekota",
      "Dangla",
      "Maychew",
      "Bekoji",
      "Holeta",
      "Kibre Mengist",
      "Shakiso",
      "Bako",
      "Gorgora",
      "Chagni",
      "Debark",
      "Humera",
      "Deder",
      "Dodola",
      "Kemissie",
      "Shinshicho",
      "Asasa",
      "Woreta",
      "Shone",
      "Metehara",
      "Ginchi",
      "Injibara",
      "Ginir",
      "Yirga Chefe",
      "Gebre Guracha",
      "Bedele",
      "Dembecha",
      "Dera",
      "Nefas Mewcha",
      "Robe",
      "Adet",
      "Asaita",
      "Bedesa",
      "Merawi",
      "Bati",
      "Babille",
      "Chencha",
      "Shiraro",
      "Gidole",
      "Korem",
      "Dabat",
      "Shewa Robit",
      "Lalibela",
      "Tis Abay",
      "Abiy Adi",
      "Leku",
      "Iteya",
      "Yabelo",
      "Bichena",
      "Mersa",
      "Addis Zemen",
      "Welenchiti",
      "Kofele",
      "Awash",
      "Dubti",
      "Shambu",
      "Chilga",
      "Tulu Bolo",
      "Logia",
      "Wonji",
      "Mendi",
      "Guder",
      "Derwernache",
      "Gutin",
      "Mekane Yesus",
      "Abomsa",
      "Huruta",
      "Guracha Jeldu",
      "Togochale",
      "Hartishek",
      "Mehoni",
      "Sokoru",
      "Mieso",
      "Konso",
      "Were Ilu",
      "Sendafa",
      "May Kadra",
      "Hirna",
      "Addi Arkay",
      "Ginde Beret",
      "Addis Alem",
      "Awubere",
      "Imi",
      "Debre Sina",
      "Dejen",
      "Gore",
      "Debre Work",
      "Hagere Selam",
      "Gewane",
      "Werder",
      "Sire",
      "Dukem",
      "Seka Chekorsa",
      "Mega",
      "Ankober",
      "Tinsae Berhan",
      "Amanuel",
      "Langano",
      "Sheikh Hussein",
      "Enticho",
      "Semera",
      "Sululta",
      "Hamusit",
      "Maksegnit",
      "Enfraz",
      "Addis Kidam",
      "Merhabete",
      "Chancho"
    ]
  }
}